{"level":"info","message":{"agent":"axios/0.25.0","body":{"number":7903117685,"otp":466148},"content":"34","date":"2022-04-14T04:58:46.438Z","http":"1.1","ip":"::ffff:127.0.0.1","method":"POST","params":{},"type":"application/json","url":"/heytech/api/smsSend"}}
{"level":"info","message":{"agent":"axios/0.25.0","body":{"email":"vkskpkk@gmail.com","link":"http://localhost:500/e7XFJx6eAb"},"content":"70","date":"2022-04-14T04:59:02.409Z","http":"1.1","ip":"::ffff:127.0.0.1","method":"POST","params":{},"type":"application/json","url":"/heytech/api/sendEmail"}}
{"level":"info","message":{"agent":"axios/0.25.0","body":{"message":"Successfully","number":"7903117685,9034342992"},"content":"59","date":"2022-04-14T04:59:08.330Z","http":"1.1","ip":"::ffff:127.0.0.1","method":"POST","params":{},"type":"application/json","url":"/heytech/api/smsSend"}}
{"level":"info","message":{"agent":"axios/0.25.0","body":{"message":"http://localhost:500/e7XFJx6eAb","number":7903117685},"content":"65","date":"2022-04-14T04:59:12.802Z","http":"1.1","ip":"::ffff:127.0.0.1","method":"POST","params":{},"type":"application/json","url":"/heytech/api/smsSend"}}
{"level":"info","message":{"agent":"axios/0.24.0","body":{"number":"7903117685","otp":368091},"content":"36","date":"2022-04-14T06:55:44.186Z","http":"1.1","ip":"::ffff:127.0.0.1","method":"POST","params":{},"type":"application/json","url":"/heytech/api/smsSend"}}
{"level":"info","message":{"agent":"axios/0.25.0","body":{"number":7903117685,"otp":467734},"content":"34","date":"2022-04-14T07:14:22.676Z","http":"1.1","ip":"::ffff:127.0.0.1","method":"POST","params":{},"type":"application/json","url":"/heytech/api/smsSend"}}
{"level":"info","message":{"agent":"axios/0.25.0","body":{"message":"Successfully","number":"7903117685,9034342992"},"content":"59","date":"2022-04-14T07:14:46.346Z","http":"1.1","ip":"::ffff:127.0.0.1","method":"POST","params":{},"type":"application/json","url":"/heytech/api/smsSend"}}
{"level":"info","message":{"agent":"axios/0.25.0","body":{"email":"vkskpkk@gmail.com","link":"http://localhost:500/3y2oUggXsj"},"content":"70","date":"2022-04-14T07:14:46.462Z","http":"1.1","ip":"::ffff:127.0.0.1","method":"POST","params":{},"type":"application/json","url":"/heytech/api/sendEmail"}}
{"level":"info","message":{"agent":"axios/0.25.0","body":{"message":"http://localhost:500/3y2oUggXsj","number":7903117685},"content":"65","date":"2022-04-14T07:14:53.491Z","http":"1.1","ip":"::ffff:127.0.0.1","method":"POST","params":{},"type":"application/json","url":"/heytech/api/smsSend"}}
{"level":"info","message":{"agent":"axios/0.25.0","body":{"number":7903117685,"otp":295726},"content":"34","date":"2022-04-14T08:38:45.272Z","http":"1.1","ip":"::ffff:127.0.0.1","method":"POST","params":{},"type":"application/json","url":"/heytech/api/smsSend"}}
{"level":"info","message":{"agent":"axios/0.25.0","body":{"message":"Successfully","number":"7903117685,9034342992"},"content":"59","date":"2022-04-14T08:39:55.237Z","http":"1.1","ip":"::ffff:127.0.0.1","method":"POST","params":{},"type":"application/json","url":"/heytech/api/smsSend"}}
{"level":"info","message":{"agent":"axios/0.25.0","body":{"email":"vkskpkk@gmail.com","link":"http://localhost:500/8Wf967a2jK"},"content":"70","date":"2022-04-14T08:40:05.560Z","http":"1.1","ip":"::ffff:127.0.0.1","method":"POST","params":{},"type":"application/json","url":"/heytech/api/sendEmail"}}
{"level":"info","message":{"agent":"axios/0.25.0","body":{"message":"http://localhost:500/8Wf967a2jK","number":7903117685},"content":"65","date":"2022-04-14T08:40:09.987Z","http":"1.1","ip":"::ffff:127.0.0.1","method":"POST","params":{},"type":"application/json","url":"/heytech/api/smsSend"}}
